{
  "settings": {
    "SECRET_KEY": "vzb127q8k@vz5mqt5ct-(20ddyaklr4kuy^65!8+az0u)a!*^s",
    "DEBUG": true,
    "ALLOWED_HOSTS": [
      "*"
    ],
    "DATABASES": {
      "default": {
        "ENGINE": "django.db.backends.mysql",
        "NAME": "dj_vercereg",
        "USER": "root",
        "PASSWORD": "root",
        "HOST": "d4p-reg-db",
        "PORT": "3306",
        "OPTIONS": {
          "charset": "utf8"
        }
      }
    },
    "use_database": "default"
  }
}

